{
  "total": 12076,
  "page": 1,
  "pageSize": 10,
  "totalPages": 1208,
  "tickets": [
    {
      "id": 44372,
      "number": "45394032",
      "payment_type": "cash",
      "section": "Middle",
      "row": null,
      "seat": null,
      "symbol": "G",
      "entry_gate": "Right",
      "date": null,
      "is_active": true,
      "is_scanned": false,
      "scan_count": 0,
      "max_scan_count": 1,
      "is_transfered": false,
      "max_time_transfer": 1,
      "transfer_count": 0,
      "event_name": "Digital No-Seating Party",
      "ticket_price": 10,
      "is_paid": true,
      "is_reserved": false,
      "is_cancelled": false,
      "created_at": "2025-09-18T13:28:19.240Z",
      "updated_at": "2025-09-18T13:28:19.240Z",
      "event_id": 68,
      "created_by": 7702,
      "cash_vendor": 36,
      "transfered_to": null,
      "scanned_by": null,
      "invoice_id": "5f34befb-0c8e-432a-bc0f-757762a26d56",
      "chair_id": null
    },
    {
      "id": 44371,
      "number": "72780295",
      "payment_type": "cash",
      "section": "Middle",
      "row": null,
      "seat": null,
      "symbol": "G",
      "entry_gate": "Right",
      "date": null,
      "is_active": true,
      "is_scanned": false,
      "scan_count": 0,
      "max_scan_count": 1,
      "is_transfered": false,
      "max_time_transfer": 1,
      "transfer_count": 0,
      "event_name": "Digital No-Seating Party",
      "ticket_price": 10,
      "is_paid": true,
      "is_reserved": false,
      "is_cancelled": false,
      "created_at": "2025-09-18T13:28:19.239Z",
      "updated_at": "2025-09-18T13:28:19.239Z",
      "event_id": 68,
      "created_by": 7702,
      "cash_vendor": 36,
      "transfered_to": null,
      "scanned_by": null,
      "invoice_id": "5f34befb-0c8e-432a-bc0f-757762a26d56",
      "chair_id": null
    },
    {
      "id": 44370,
      "number": "73512432",
      "payment_type": "cash",
      "section": "Middle",
      "row": null,
      "seat": null,
      "symbol": "G",
      "entry_gate": "Right",
      "date": null,
      "is_active": true,
      "is_scanned": false,
      "scan_count": 0,
      "max_scan_count": 1,
      "is_transfered": false,
      "max_time_transfer": 1,
      "transfer_count": 0,
      "event_name": "Digital No-Seating Party",
      "ticket_price": 10,
      "is_paid": true,
      "is_reserved": false,
      "is_cancelled": false,
      "created_at": "2025-09-18T13:28:19.238Z",
      "updated_at": "2025-09-18T13:28:19.238Z",
      "event_id": 68,
      "created_by": 7702,
      "cash_vendor": 36,
      "transfered_to": null,
      "scanned_by": null,
      "invoice_id": "5f34befb-0c8e-432a-bc0f-757762a26d56",
      "chair_id": null
    },
    {
      "id": 44369,
      "number": "62769260",
      "payment_type": "cash",
      "section": "Middle",
      "row": null,
      "seat": null,
      "symbol": "G",
      "entry_gate": "Right",
      "date": null,
      "is_active": true,
      "is_scanned": false,
      "scan_count": 0,
      "max_scan_count": 1,
      "is_transfered": false,
      "max_time_transfer": 1,
      "transfer_count": 0,
      "event_name": "Digital No-Seating Party",
      "ticket_price": 10,
      "is_paid": true,
      "is_reserved": false,
      "is_cancelled": false,
      "created_at": "2025-09-18T13:28:19.236Z",
      "updated_at": "2025-09-18T13:28:19.236Z",
      "event_id": 68,
      "created_by": 7702,
      "cash_vendor": 36,
      "transfered_to": null,
      "scanned_by": null,
      "invoice_id": "5f34befb-0c8e-432a-bc0f-757762a26d56",
      "chair_id": null
    },
    {
      "id": 44364,
      "number": "78681301",
      "payment_type": "cash",
      "section": "Middle",
      "row": null,
      "seat": null,
      "symbol": "G",
      "entry_gate": "Right",
      "date": null,
      "is_active": true,
      "is_scanned": false,
      "scan_count": 0,
      "max_scan_count": 1,
      "is_transfered": false,
      "max_time_transfer": 1,
      "transfer_count": 0,
      "event_name": "Digital No-Seating Party",
      "ticket_price": 10,
      "is_paid": false,
      "is_reserved": true,
      "is_cancelled": false,
      "created_at": "2025-09-18T13:26:37.040Z",
      "updated_at": "2025-09-18T13:26:37.040Z",
      "event_id": 68,
      "created_by": null,
      "cash_vendor": 36,
      "transfered_to": null,
      "scanned_by": null,
      "invoice_id": "aead63a2-d272-4c18-9a8d-cbb206c77854",
      "chair_id": null
    },
    {
      "id": 44363,
      "number": "03035934",
      "payment_type": "cash",
      "section": "Middle",
      "row": null,
      "seat": null,
      "symbol": "G",
      "entry_gate": "Right",
      "date": null,
      "is_active": true,
      "is_scanned": false,
      "scan_count": 0,
      "max_scan_count": 1,
      "is_transfered": false,
      "max_time_transfer": 1,
      "transfer_count": 0,
      "event_name": "Digital No-Seating Party",
      "ticket_price": 10,
      "is_paid": false,
      "is_reserved": true,
      "is_cancelled": false,
      "created_at": "2025-09-18T13:26:37.037Z",
      "updated_at": "2025-09-18T13:26:37.037Z",
      "event_id": 68,
      "created_by": null,
      "cash_vendor": 36,
      "transfered_to": null,
      "scanned_by": null,
      "invoice_id": "aead63a2-d272-4c18-9a8d-cbb206c77854",
      "chair_id": null
    },
    {
      "id": 44362,
      "number": "63302414",
      "payment_type": "app",
      "section": "General",
      "row": "30",
      "seat": "18",
      "symbol": "G",
      "entry_gate": "Right",
      "date": null,
      "is_active": true,
      "is_scanned": false,
      "scan_count": 0,
      "max_scan_count": 1,
      "is_transfered": false,
      "max_time_transfer": 1,
      "transfer_count": 0,
      "event_name": "Digital Seating Party",
      "ticket_price": 20,
      "is_paid": true,
      "is_reserved": false,
      "is_cancelled": false,
      "created_at": "2025-09-16T00:45:55.795Z",
      "updated_at": "2025-09-16T00:46:09.684Z",
      "event_id": 69,
      "created_by": 1026,
      "cash_vendor": null,
      "transfered_to": null,
      "scanned_by": null,
      "invoice_id": "3c872f1c-ef89-42b6-883e-d8b31e7c7bd4",
      "chair_id": "6c907eaf-d6bf-4bca-a571-5ef16d019c5e"
    },
    {
      "id": 44361,
      "number": "99094117",
      "payment_type": "app",
      "section": "General",
      "row": "30",
      "seat": "19",
      "symbol": "G",
      "entry_gate": "Right",
      "date": null,
      "is_active": true,
      "is_scanned": false,
      "scan_count": 0,
      "max_scan_count": 1,
      "is_transfered": false,
      "max_time_transfer": 1,
      "transfer_count": 0,
      "event_name": "Digital Seating Party",
      "ticket_price": 20,
      "is_paid": true,
      "is_reserved": false,
      "is_cancelled": false,
      "created_at": "2025-09-16T00:45:55.791Z",
      "updated_at": "2025-09-16T00:46:09.623Z",
      "event_id": 69,
      "created_by": 1026,
      "cash_vendor": null,
      "transfered_to": null,
      "scanned_by": null,
      "invoice_id": "3c872f1c-ef89-42b6-883e-d8b31e7c7bd4",
      "chair_id": "c7c606fd-df68-4fb6-a4c6-126d6b36a4c5"
    },
    {
      "id": 44360,
      "number": "22350830",
      "payment_type": "app",
      "section": "General",
      "row": "30",
      "seat": "20",
      "symbol": "G",
      "entry_gate": "Right",
      "date": null,
      "is_active": true,
      "is_scanned": false,
      "scan_count": 0,
      "max_scan_count": 1,
      "is_transfered": false,
      "max_time_transfer": 1,
      "transfer_count": 0,
      "event_name": "Digital Seating Party",
      "ticket_price": 20,
      "is_paid": true,
      "is_reserved": false,
      "is_cancelled": false,
      "created_at": "2025-09-16T00:45:55.768Z",
      "updated_at": "2025-09-16T00:46:09.371Z",
      "event_id": 69,
      "created_by": 1026,
      "cash_vendor": null,
      "transfered_to": null,
      "scanned_by": null,
      "invoice_id": "3c872f1c-ef89-42b6-883e-d8b31e7c7bd4",
      "chair_id": "83435391-dbb0-409a-89b0-97f1ea30b617"
    },
    {
      "id": 44358,
      "number": "79133581",
      "payment_type": "app",
      "section": "Middle",
      "row": null,
      "seat": null,
      "symbol": "G",
      "entry_gate": "Right",
      "date": null,
      "is_active": true,
      "is_scanned": false,
      "scan_count": 0,
      "max_scan_count": 1,
      "is_transfered": false,
      "max_time_transfer": 1,
      "transfer_count": 0,
      "event_name": "Digital No-Seating Party",
      "ticket_price": 10,
      "is_paid": true,
      "is_reserved": false,
      "is_cancelled": false,
      "created_at": "2025-09-12T10:00:27.453Z",
      "updated_at": "2025-09-12T10:00:48.130Z",
      "event_id": 68,
      "created_by": 7693,
      "cash_vendor": null,
      "transfered_to": null,
      "scanned_by": null,
      "invoice_id": "12c3f175-66fe-42b0-b9c5-93c188ae86df",
      "chair_id": null
    }
  ]
}